%!PS-Adobe-2.0 EPSF-2.0
%%Title: ClassName
%%Creator: Doxygen
%%CreationDate: Time
%%For: 
%Magnification: 1.00
%%Orientation: Portrait
%%BoundingBox: 0 0 500 1836.734694
%%Pages: 0
%%BeginSetup
%%EndSetup
%%EndComments

% ----- variables -----

/boxwidth 0 def
/boxheight 40 def
/fontheight 24 def
/marginwidth 10 def
/distx 20 def
/disty 40 def
/boundaspect 0.272222 def  % aspect ratio of the BoundingBox (width/height)
/boundx 500 def
/boundy boundx boundaspect div def
/xspacing 0 def
/yspacing 0 def
/rows 54 def
/cols 2 def
/scalefactor 0 def
/boxfont /Times-Roman findfont fontheight scalefont def

% ----- procedures -----

/dotted { [1 4] 0 setdash } def
/dashed { [5] 0 setdash } def
/solid  { [] 0 setdash } def

/max % result = MAX(arg1,arg2)
{
  /a exch def
  /b exch def
  a b gt {a} {b} ifelse
} def

/xoffset % result = MAX(0,(scalefactor-(boxwidth*cols+distx*(cols-1)))/2)
{
  0 scalefactor boxwidth cols mul distx cols 1 sub mul add sub 2 div max
} def

/cw % boxwidth = MAX(boxwidth, stringwidth(arg1))
{
  /str exch def
  /boxwidth boxwidth str stringwidth pop max def
} def

/box % draws a box with text `arg1' at grid pos (arg2,arg3)
{ gsave
  2 setlinewidth
  newpath
  exch xspacing mul xoffset add
  exch yspacing mul
  moveto
  boxwidth 0 rlineto 
  0 boxheight rlineto 
  boxwidth neg 0 rlineto 
  0 boxheight neg rlineto 
  closepath
  dup stringwidth pop neg boxwidth add 2 div
  boxheight fontheight 2 div sub 2 div
  rmoveto show stroke
  grestore
} def  

/mark
{ newpath
  exch xspacing mul xoffset add boxwidth add
  exch yspacing mul
  moveto
  0 boxheight 4 div rlineto
  boxheight neg 4 div boxheight neg 4 div rlineto
  closepath
  eofill
  stroke
} def

/arrow
{ newpath
  moveto
  3 -8 rlineto
  -6 0 rlineto
  3 8 rlineto
  closepath
  eofill
  stroke
} def

/out % draws an output connector for the block at (arg1,arg2)
{
  newpath
  exch xspacing mul xoffset add boxwidth 2 div add
  exch yspacing mul boxheight add
  /y exch def
  /x exch def
  x y moveto
  0 disty 2 div rlineto 
  stroke
  1 eq { x y disty 2 div add arrow } if
} def

/in % draws an input connector for the block at (arg1,arg2)
{
  newpath
  exch xspacing mul xoffset add boxwidth 2 div add
  exch yspacing mul disty 2 div sub
  /y exch def
  /x exch def
  x y moveto
  0 disty 2 div rlineto
  stroke
  1 eq { x y disty 2 div add arrow } if
} def

/hedge
{
  exch xspacing mul xoffset add boxwidth 2 div add
  exch yspacing mul boxheight 2 div sub
  /y exch def
  /x exch def
  newpath
  x y moveto
  boxwidth 2 div distx add 0 rlineto
  stroke
  1 eq
  { newpath x boxwidth 2 div distx add add y moveto
    -8 3 rlineto
    0 -6 rlineto
    8 3 rlineto
    closepath
    eofill
    stroke
  } if
} def

/vedge
{
  /ye exch def
  /ys exch def
  /xs exch def
  newpath
  xs xspacing mul xoffset add boxwidth 2 div add dup
  ys yspacing mul boxheight 2 div sub
  moveto
  ye yspacing mul boxheight 2 div sub
  lineto
  stroke
} def

/conn % connections the blocks from col `arg1' to `arg2' of row `arg3'
{
  /ys exch def
  /xe exch def
  /xs exch def
  newpath
  xs xspacing mul xoffset add boxwidth 2 div add
  ys yspacing mul disty 2 div sub
  moveto
  xspacing xe xs sub mul 0
  rlineto
  stroke
} def

% ----- main ------

boxfont setfont
1 boundaspect scale
(OpenZWave::CommandClass) cw
(OpenZWave::Alarm) cw
(OpenZWave::ApplicationStatus) cw
(OpenZWave::Association) cw
(OpenZWave::AssociationCommandConfiguration) cw
(OpenZWave::Basic) cw
(OpenZWave::BasicWindowCovering) cw
(OpenZWave::Battery) cw
(OpenZWave::CentralScene) cw
(OpenZWave::ClimateControlSchedule) cw
(OpenZWave::Clock) cw
(OpenZWave::Color) cw
(OpenZWave::Configuration) cw
(OpenZWave::ControllerReplication) cw
(OpenZWave::CRC16Encap) cw
(OpenZWave::DeviceResetLocally) cw
(OpenZWave::DoorLock) cw
(OpenZWave::DoorLockLogging) cw
(OpenZWave::EnergyProduction) cw
(OpenZWave::Hail) cw
(OpenZWave::Indicator) cw
(OpenZWave::Language) cw
(OpenZWave::Lock) cw
(OpenZWave::ManufacturerSpecific) cw
(OpenZWave::Meter) cw
(OpenZWave::MeterPulse) cw
(OpenZWave::MultiCmd) cw
(OpenZWave::MultiInstance) cw
(OpenZWave::MultiInstanceAssociation) cw
(OpenZWave::NodeNaming) cw
(OpenZWave::NoOperation) cw
(OpenZWave::Powerlevel) cw
(OpenZWave::Proprietary) cw
(OpenZWave::Protection) cw
(OpenZWave::SceneActivation) cw
(OpenZWave::Security) cw
(OpenZWave::SensorAlarm) cw
(OpenZWave::SensorBinary) cw
(OpenZWave::SensorMultilevel) cw
(OpenZWave::SwitchAll) cw
(OpenZWave::SwitchBinary) cw
(OpenZWave::SwitchMultilevel) cw
(OpenZWave::SwitchToggleBinary) cw
(OpenZWave::SwitchToggleMultilevel) cw
(OpenZWave::ThermostatFanMode) cw
(OpenZWave::ThermostatFanState) cw
(OpenZWave::ThermostatMode) cw
(OpenZWave::ThermostatOperatingState) cw
(OpenZWave::ThermostatSetpoint) cw
(OpenZWave::TimeParameters) cw
(OpenZWave::UserCode) cw
(OpenZWave::Version) cw
(OpenZWave::WakeUp) cw
(OpenZWave::ZWavePlusInfo) cw
/boxwidth boxwidth marginwidth 2 mul add def
/xspacing boxwidth distx add def
/yspacing boxheight disty add def
/scalefactor 
  boxwidth cols mul distx cols 1 sub mul add
  boxheight rows mul disty rows 1 sub mul add boundaspect mul 
  max def
boundx scalefactor div boundy scalefactor div scale

% ----- classes -----

 (OpenZWave::CommandClass) 0.000000 53.000000 box
 (OpenZWave::Alarm) 1.000000 52.000000 box
 (OpenZWave::ApplicationStatus) 1.000000 51.000000 box
 (OpenZWave::Association) 1.000000 50.000000 box
 (OpenZWave::AssociationCommandConfiguration) 1.000000 49.000000 box
 (OpenZWave::Basic) 1.000000 48.000000 box
 (OpenZWave::BasicWindowCovering) 1.000000 47.000000 box
 (OpenZWave::Battery) 1.000000 46.000000 box
 (OpenZWave::CentralScene) 1.000000 45.000000 box
 (OpenZWave::ClimateControlSchedule) 1.000000 44.000000 box
 (OpenZWave::Clock) 1.000000 43.000000 box
 (OpenZWave::Color) 1.000000 42.000000 box
 (OpenZWave::Configuration) 1.000000 41.000000 box
 (OpenZWave::ControllerReplication) 1.000000 40.000000 box
 (OpenZWave::CRC16Encap) 1.000000 39.000000 box
 (OpenZWave::DeviceResetLocally) 1.000000 38.000000 box
 (OpenZWave::DoorLock) 1.000000 37.000000 box
 (OpenZWave::DoorLockLogging) 1.000000 36.000000 box
 (OpenZWave::EnergyProduction) 1.000000 35.000000 box
 (OpenZWave::Hail) 1.000000 34.000000 box
 (OpenZWave::Indicator) 1.000000 33.000000 box
 (OpenZWave::Language) 1.000000 32.000000 box
 (OpenZWave::Lock) 1.000000 31.000000 box
 (OpenZWave::ManufacturerSpecific) 1.000000 30.000000 box
 (OpenZWave::Meter) 1.000000 29.000000 box
 (OpenZWave::MeterPulse) 1.000000 28.000000 box
 (OpenZWave::MultiCmd) 1.000000 27.000000 box
 (OpenZWave::MultiInstance) 1.000000 26.000000 box
 (OpenZWave::MultiInstanceAssociation) 1.000000 25.000000 box
 (OpenZWave::NodeNaming) 1.000000 24.000000 box
 (OpenZWave::NoOperation) 1.000000 23.000000 box
 (OpenZWave::Powerlevel) 1.000000 22.000000 box
 (OpenZWave::Proprietary) 1.000000 21.000000 box
 (OpenZWave::Protection) 1.000000 20.000000 box
 (OpenZWave::SceneActivation) 1.000000 19.000000 box
 (OpenZWave::Security) 1.000000 18.000000 box
 (OpenZWave::SensorAlarm) 1.000000 17.000000 box
 (OpenZWave::SensorBinary) 1.000000 16.000000 box
 (OpenZWave::SensorMultilevel) 1.000000 15.000000 box
 (OpenZWave::SwitchAll) 1.000000 14.000000 box
 (OpenZWave::SwitchBinary) 1.000000 13.000000 box
 (OpenZWave::SwitchMultilevel) 1.000000 12.000000 box
 (OpenZWave::SwitchToggleBinary) 1.000000 11.000000 box
 (OpenZWave::SwitchToggleMultilevel) 1.000000 10.000000 box
 (OpenZWave::ThermostatFanMode) 1.000000 9.000000 box
 (OpenZWave::ThermostatFanState) 1.000000 8.000000 box
 (OpenZWave::ThermostatMode) 1.000000 7.000000 box
 (OpenZWave::ThermostatOperatingState) 1.000000 6.000000 box
 (OpenZWave::ThermostatSetpoint) 1.000000 5.000000 box
 (OpenZWave::TimeParameters) 1.000000 4.000000 box
 (OpenZWave::UserCode) 1.000000 3.000000 box
 (OpenZWave::Version) 1.000000 2.000000 box
 (OpenZWave::WakeUp) 1.000000 1.000000 box
 (OpenZWave::ZWavePlusInfo) 1.000000 0.000000 box

% ----- relations -----

solid
1 0.000000 52.250000 out
solid
0 0.000000 52.500000 hedge
solid
0 0.000000 51.500000 hedge
solid
0 0.000000 50.500000 hedge
solid
0 0.000000 49.500000 hedge
solid
0 0.000000 48.500000 hedge
solid
0 0.000000 47.500000 hedge
solid
0 0.000000 46.500000 hedge
solid
0 0.000000 45.500000 hedge
solid
0 0.000000 44.500000 hedge
solid
0 0.000000 43.500000 hedge
solid
0 0.000000 42.500000 hedge
solid
0 0.000000 41.500000 hedge
solid
0 0.000000 40.500000 hedge
solid
0 0.000000 39.500000 hedge
solid
0 0.000000 38.500000 hedge
solid
0 0.000000 37.500000 hedge
solid
0 0.000000 36.500000 hedge
solid
0 0.000000 35.500000 hedge
solid
0 0.000000 34.500000 hedge
solid
0 0.000000 33.500000 hedge
solid
0 0.000000 32.500000 hedge
solid
0 0.000000 31.500000 hedge
solid
0 0.000000 30.500000 hedge
solid
0 0.000000 29.500000 hedge
solid
0 0.000000 28.500000 hedge
solid
0 0.000000 27.500000 hedge
solid
0 0.000000 26.500000 hedge
solid
0 0.000000 25.500000 hedge
solid
0 0.000000 24.500000 hedge
solid
0 0.000000 23.500000 hedge
solid
0 0.000000 22.500000 hedge
solid
0 0.000000 21.500000 hedge
solid
0 0.000000 20.500000 hedge
solid
0 0.000000 19.500000 hedge
solid
0 0.000000 18.500000 hedge
solid
0 0.000000 17.500000 hedge
solid
0 0.000000 16.500000 hedge
solid
0 0.000000 15.500000 hedge
solid
0 0.000000 14.500000 hedge
solid
0 0.000000 13.500000 hedge
solid
0 0.000000 12.500000 hedge
solid
0 0.000000 11.500000 hedge
solid
0 0.000000 10.500000 hedge
solid
0 0.000000 9.500000 hedge
solid
0 0.000000 8.500000 hedge
solid
0 0.000000 7.500000 hedge
solid
0 0.000000 6.500000 hedge
solid
0 0.000000 5.500000 hedge
solid
0 0.000000 4.500000 hedge
solid
0 0.000000 3.500000 hedge
solid
0 0.000000 2.500000 hedge
solid
0 0.000000 1.500000 hedge
solid
0 0.000000 0.500000 hedge
solid
0.000000 53.000000 0.500000 vedge
